New insights on social media metrics: examining the relationship between universities’ academic reputation and Wikipedia attention
…
We created a new data.frame with the average value of indicators by country. Only countries with more than 10 universities are considered.

df_group <- wiki_univ
df_group[which(df_group$univ_name %in% countries$country[which(countries$universities <= 10)]), c('univ_name')] <- ''
df_group$universities <- 1
df_group <- df_group[,c('univ_name', 'universities', variables)] %>%
  group_by(univ_name) %>%
  summarise(across(variables, mean, na.rm=TRUE), universities=sum(universities))

df_group[order(df_group$universities, decreasing = TRUE),]

## # A tibble: 21 × 13
##    univ_name    publications top_pubs pp_top collaboration    oa univ_age    len
##    <chr>               <dbl>    <dbl>  <dbl>         <dbl> <dbl>    <dbl>  <dbl>
##  1 "China"             8024.     918. 0.105          6019. 2905.     88.9 14095.
##  2 "United Sta…       10695.    1796. 0.149          8848. 6723.    147.  93359.
##  3 ""                  6419.     807. 0.110          5347. 3465.    139.  31176.
##  4 "United Kin…        9448.    1679. 0.161          8141. 8049.    163.  77672.
##  5 "Germany"           8322.    1217. 0.137          7075. 4768.    213.  27439.
##  6 "Japan"             5766.     495. 0.0758         4704. 3055.    104.  17885.
##  7 "South Kore…        6493.     532. 0.0769         5071. 2795.     87.2 18167.
##  8 "Italy"             7596.     980. 0.128          6559. 4116.    330.  16770.
##  9 "Spain"             5305.     609. 0.109          4433. 3014.    241.  14008.
## 10 "India"             3350.     278. 0.0835         2120.  836.     74.1 30990.
## # … with 11 more rows, and 5 more variables: page_edits <dbl>, views <dbl>,
## #   langlinks <dbl>, page_age <dbl>, universities <dbl>
…
